{
    "description" : "standard network events information. (old layout)",

    "db_table" : "network_events",

    "columns" : {
        "timestamp" : {
            "type" : "timestamp"
        },

        "host" : "hostId",

        "process_id" : "secdoProcessId",

        "instance" : {
            "db_column" :"instanceId",
            "type" : "int"
        },

        "access" : {
            "db_column" : "networkAccessType",
            "type" : "network-access"
        },

        "local" : "localIpv4",

        "remote" : {
            "db_column" : "remoteIpv4",
            "type" : "ipaddress"
        },

        "lport" : {
            "db_column" : "localPort",
            "type" : "silent-int"
        },

        "rport" : {
            "db_column" : "remotePort",
            "type" : "silent-int"
        },

        "country" : null,

        "remote_host" : "remoteRealHostname",

        "user" : "username",

        "download" : {
            "type" : "silent-int"
        },

        "upload" : {
            "type" : "silent-int"
        },

        "is_statistics" : {
            "db_column" : "isStatistics",
            "type" : "bool"
        },

        "connection_closed" : {
            "db_column" : "connectionClosed",
            "type" : "bool"
        }
    }
}
