{
    "description" : "the Postgres alerts table.",

    "db_table" : "siem_events",

    "columns" : {
        "timestamp" : {
            "db_column" : "event_ts",
            "type" : "int"
        },

        "siem_event_id" : {
            "type" : "int"
        },

        "is_archive" : {
            "db_column" : "is_archive",
            "type" : "bool"
        },

        "alert_name" : {
            "db_column" : "secdo_data[1]->>'secdo_alert_name'"
        },

        "severity" : {
            "db_column" : "secdo_data[1]->>'secdo_severity'"
        },

        "host" : "agent_id",

        "instance" : {
            "db_column" :"secdo_data[1]->>'instanceId'",
            "type" : "int"
        },

        "process_id" : "secdo_data[1]->>'secdoProcessId'",

        "cid" : "secdo_data[1]->>'CID'",

        "status" : null
    }
}
